OVCCallejero: Extract a list of provinces with their codes — catr_ovc_get_cod_provinces • CatastRo
…
    OVCCoordenadas API:
catr_ovc_get_cod_munic()

Other search: 
catr_atom_search_munic(),
catr_get_code_from_coords(),
catr_ovc_get_cod_munic()

    Examples

# \donttest{

catr_ovc_get_cod_provinces()
#> # A tibble: 48 × 2
#>    cpine np       
#>    <chr> <chr>    
#>  1 15    A CORUÑA 
#>  2 03    ALACANT  
#>  3 02    ALBACETE 
#>  4 04    ALMERIA  
#>  5 33    ASTURIAS 
#>  6 05    AVILA    
#>  7 06    BADAJOZ  
#>  8 08    BARCELONA
#>  9 09    BURGOS   
#> 10 10    CACERES  
#> # … with 38 more rows
…
